{"orderId":"10", "userId":"101", "productId":"201", "productName":"GOOGLE Pixel 4a", "unitPrice":"349", "count":"1", "category":"Smartphones"}
{"orderId":"19", "userId":"102", "productId":"211", "productName":"Canon EOS 30", "unitPrice":"519", "count":"1", "category":"Fotografie"}
{"orderId":"12", "userId":"103", "productId":"202", "productName":"SAMSUNG Galaxy A51", "unitPrice":"249", "count":"1", "category":"Smartphones"}
{"orderId":"11", "userId":"104", "productId":"212", "productName":"Google Chromebook", "unitPrice":"349", "count":"1", "category":"PC"}
{"orderId":"18", "userId":"101", "productId":"203", "productName":"APPLE iPhone SE", "unitPrice":"519", "count":"1", "category":"Smartphones"}
{"orderId":"13", "userId":"102", "productId":"213", "productName":"Nikon F1", "unitPrice":"249", "count":"1", "category":"Fotografie"}
{"orderId":"20", "userId":"103", "productId":"203", "productName":"APPLE iPhone SE", "unitPrice":"519", "count":"1", "category":"Smartphones"}
{"orderId":"14", "userId":"104", "productId":"202", "productName":"SAMSUNG Galaxy A51", "unitPrice":"249", "count":"2", "category":"Smartphones"}
{"orderId":"17", "userId":"101", "productId":"214", "productName":"Olympus A12", "unitPrice":"249", "count":"1", "category":"Fotografie"}
{"orderId":"21", "userId":"102", "productId":"203", "productName":"APPLE iPhone SE", "unitPrice":"519", "count":"1", "category":"Smartphones"}
{"orderId":"15", "userId":"103", "productId":"202", "productName":"SAMSUNG Galaxy A51", "unitPrice":"249", "count":"1", "category":"Smartphones"}
{"orderId":"16", "userId":"104", "productId":"215", "productName":"Dell Notebook", "unitPrice":"1249", "count":"1", "category":"PC"}
